\relax 
\@writefile{toc}{\contentsline {section}{\numberline {1}Introduction}{3}\protected@file@percent }
\@writefile{toc}{\contentsline {section}{\numberline {2}Development}{4}\protected@file@percent }
\@writefile{toc}{\contentsline {subsection}{\numberline {2.1}Setting up Android Studio}{4}\protected@file@percent }
\@writefile{toc}{\contentsline {subsection}{\numberline {2.2}Setting up ADB (Android Debugging Bridge) for Cruzr}{4}\protected@file@percent }
\@writefile{toc}{\contentsline {subsection}{\numberline {2.3}Connecting to Cruzr via ADB}{5}\protected@file@percent }
\@writefile{lof}{\contentsline {figure}{\numberline {1}{\ignorespaces This is where the cable should be connected}}{5}\protected@file@percent }
\@writefile{toc}{\contentsline {subsection}{\numberline {2.4}Installing APK packages}{6}\protected@file@percent }
\@writefile{toc}{\contentsline {subsection}{\numberline {2.5}Programming Cruzr}{7}\protected@file@percent }
\@writefile{toc}{\contentsline {subsection}{\numberline {2.6}Ports in back panel}{7}\protected@file@percent }
\@writefile{toc}{\contentsline {subsection}{\numberline {2.7}Sensors}{8}\protected@file@percent }
\@writefile{lof}{\contentsline {figure}{\numberline {2}{\ignorespaces Here you can see where the sensors are located}}{8}\protected@file@percent }
\@writefile{toc}{\contentsline {section}{\numberline {3}Practical}{9}\protected@file@percent }
\@writefile{toc}{\contentsline {subsection}{\numberline {3.1}Accessing administrator mode}{9}\protected@file@percent }
\@writefile{toc}{\contentsline {subsection}{\numberline {3.2}Making maps and adding locations}{9}\protected@file@percent }
\@writefile{lof}{\contentsline {figure}{\numberline {3}{\ignorespaces Advanced menu window}}{9}\protected@file@percent }
\@writefile{lof}{\contentsline {figure}{\numberline {4}{\ignorespaces Cruzr map login screen}}{10}\protected@file@percent }
\@writefile{lof}{\contentsline {figure}{\numberline {5}{\ignorespaces This is the button you want to press to select a map}}{12}\protected@file@percent }
\@writefile{lof}{\contentsline {figure}{\numberline {6}{\ignorespaces This is the button you want to press to select a map}}{12}\protected@file@percent }
\@writefile{toc}{\contentsline {subsection}{\numberline {3.3}Adding a user using a picture file}{15}\protected@file@percent }
\@writefile{lof}{\contentsline {figure}{\numberline {7}{\ignorespaces Tap the middle button in the top right corner to add a new person}}{15}\protected@file@percent }
\@writefile{toc}{\contentsline {subsection}{\numberline {3.4}Cruzr APP}{16}\protected@file@percent }
